…
### Данные клиента

1.  Определить производителя для каждого обнаруженного устройства

```         
> client_data %>%
+     mutate(
+         Vendor = str_sub(Station_MAC, 1, 8)
+     ) %>%
+     distinct(Vendor)
# A tibble: 11,792 × 1
   Vendor  
   <chr>   
 1 CA:66:3B
 2 96:35:2D
 3 5C:3A:45
 4 C0:E4:34
 5 5E:8E:A6
 6 10:51:07
 7 68:54:5A
 8 74:4C:A1
 9 8A:A3:5A
10 CA:54:C4
# ℹ 11,782 more rows
# ℹ Use `print(n = ...)` to see more rows
…
3.  Кластеризовать запросы от устройств к точкам доступа по их именам.
    Определить время появления устройства в зоне радиовидимости и время
    выхода его из нее

```         
> client_data %>%
+     group_by(Station_MAC, Probed_ESSIDs) %>%
+     summarise(
+         first_seen = min(First_time_seen, na.rm = TRUE),
+         last_seen  = max(Last_time_seen, na.rm = TRUE),
+         .groups = "drop"
+     )
# A tibble: 12,081 × 4
   Station_MAC       Probed_ESSIDs first_seen          last_seen          
   <chr>             <chr>         <dttm>              <dttm>             
 1 00:04:35:22:4F:75 NA            2023-07-28 09:46:33 2023-07-28 11:15:49
 2 00:0C:E7:A8:D6:73 NA            2023-07-28 10:22:07 2023-07-28 10:22:08
 3 00:90:4C:E6:54:54 Redmi         2023-07-28 09:16:59 2023-07-28 10:21:15
 4 00:95:69:E7:7C:ED nvripcsuite   2023-07-28 09:13:11 2023-07-28 11:56:13
 5 00:95:69:E7:7D:21 nvripcsuite   2023-07-28 09:13:15 2023-07-28 11:56:17
 6 00:95:69:E7:7F:35 nvripcsuite   2023-07-28 09:13:11 2023-07-28 11:56:07
 7 00:98:8C:CE:8E:45 NA            2023-07-28 10:34:53 2023-07-28 10:35:13
 8 00:E9:3A:67:93:E9 NA            2023-07-28 10:15:18 2023-07-28 11:55:11
 9 00:E9:3A:F8:10:C7 NA            2023-07-28 10:20:19 2023-07-28 10:20:19
10 00:F4:8D:F7:C5:19 Redmi 12      2023-07-28 10:45:04 2023-07-28 11:43:26
# ℹ 12,071 more rows
# ℹ Use `print(n = ...)` to see more rows
> 
```

4.  Оценить стабильность уровня сигнала внури кластера во времени.
    Выявить наиболее стабильный кластер.

```         
> client_data %>%
+     group_by(Probed_ESSIDs) %>%
+     summarise(
+         signal_sd = sd(Power, na.rm = TRUE),
+         .groups = "drop"
+     ) %>%
+     arrange(signal_sd)
# A tibble: 108 × 2
   Probed_ESSIDs  signal_sd
   <chr>              <dbl>
 1 Galaxy A71         0.707
 2 Kesha              1.41 
 3 podval             1.63 
 4 Tupik              2.31 
 5 KB-12              2.83 
 6 Reconn-Guest       2.83 
 7 MT_FREE            2.97 
 8 IKB                3.06 
 9 OKB                3.06 
10 Rayskaya_banya     3.06 
# ℹ 98 more rows
# ℹ Use `print(n = ...)` to see more rows
…
